{
    "match_id": 5931675605,
    "barracks_status_dire": 63,
    "barracks_status_radiant": 3,
    "chat": null,
    "cluster": 122,
    "cosmetics": null,
    "dire_score": 38,
    "dire_team_id": null,
    "draft_timings": null,
    "duration": 2329,
    "engine": 1,
    "first_blood_time": 2,
    "game_mode": 22,
    "human_players": 10,
    "leagueid": 0,
    "lobby_type": 0,
    "match_seq_num": 4973923001,
    "negative_votes": 0,
    "objectives": null,
    "picks_bans": [
        {
            "is_pick": true,
            "hero_id": 7,
            "team": 0,
            "order": 0
        },
        {
            "is_pick": true,
            "hero_id": 45,
            "team": 0,
            "order": 1
        },
        {
            "is_pick": true,
            "hero_id": 103,
            "team": 1,
            "order": 2
        },
        {
            "is_pick": true,
            "hero_id": 70,
            "team": 1,
            "order": 3
        },
        {
            "is_pick": true,
            "hero_id": 25,
            "team": 1,
            "order": 4
        },
        {
            "is_pick": true,
            "hero_id": 79,
            "team": 0,
            "order": 5
        },
        {
            "is_pick": true,
            "hero_id": 12,
            "team": 0,
            "order": 6
        },
        {
            "is_pick": true,
            "hero_id": 18,
            "team": 1,
            "order": 7
        },
        {
            "is_pick": true,
            "hero_id": 100,
            "team": 0,
            "order": 8
        },
        {
            "is_pick": false,
            "hero_id": 73,
            "team": 0,
            "order": 9
        },
        {
            "is_pick": false,
            "hero_id": 32,
            "team": 0,
            "order": 10
        },
        {
            "is_pick": false,
            "hero_id": 14,
            "team": 0,
            "order": 11
        },
        {
            "is_pick": false,
            "hero_id": 104,
            "team": 0,
            "order": 12
        },
        {
            "is_pick": false,
            "hero_id": 93,
            "team": 0,
            "order": 13
        },
        {
            "is_pick": false,
            "hero_id": 76,
            "team": 1,
            "order": 14
        },
        {
            "is_pick": false,
            "hero_id": 10,
            "team": 1,
            "order": 15
        }
    ],
    "positive_votes": 0,
    "radiant_gold_adv": null,
    "radiant_score": 22,
    "radiant_team_id": null,
    "radiant_win": false,
    "radiant_xp_adv": null,
    "skill": 1,
    "start_time": 1617768733,
    "teamfights": null,
    "tower_status_dire": 1828,
    "tower_status_radiant": 4,
    "version": null,
    "replay_salt": 1649886988,
    "series_id": 0,
    "series_type": 0,
    "players": [
        {
            "match_id": 5931675605,
            "player_slot": 0,
            "ability_targets": null,
            "ability_upgrades_arr": [
                5065,
                5068,
                5066,
                5068,
                5068,
                5067,
                5068,
                5066,
                5066,
                452,
                5066,
                5067,
                5065,
                5065,
                5959,
                5065,
                5067,
                6146
            ],
            "ability_uses": null,
            "account_id": 96833866,
            "actions": null,
            "additional_units": null,
            "assists": 4,
            "backpack_0": 16,
            "backpack_1": 0,
            "backpack_2": 0,
            "backpack_3": null,
            "buyback_log": null,
            "camps_stacked": null,
            "connection_log": null,
            "creeps_stacked": null,
            "damage": null,
            "damage_inflictor": null,
            "damage_inflictor_received": null,
            "damage_taken": null,
            "damage_targets": null,
            "deaths": 5,
            "denies": 8,
            "dn_t": null,
            "firstblood_claimed": null,
            "gold": 3526,
            "gold_per_min": 511,
            "gold_reasons": null,
            "gold_spent": 15465,
            "gold_t": null,
            "hero_damage": 9168,
            "hero_healing": 0,
            "hero_hits": null,
            "hero_id": 12,
            "item_0": 114,
            "item_1": 147,
            "item_2": 63,
            "item_3": 174,
            "item_4": 11,
            "item_5": 20,
            "item_neutral": 378,
            "item_uses": null,
            "kill_streaks": null,
            "killed": null,
            "killed_by": null,
            "kills": 5,
            "kills_log": null,
            "lane_pos": null,
            "last_hits": 299,
            "leaver_status": 0,
            "level": 23,
            "lh_t": null,
            "life_state": null,
            "max_hero_hit": null,
            "multi_kills": null,
            "net_worth": 17811,
            "obs": null,
            "obs_left_log": null,
            "obs_log": null,
            "obs_placed": null,
            "party_id": 0,
            "party_size": 5,
            "performance_others": null,
            "permanent_buffs": null,
            "pings": null,
            "pred_vict": null,
            "purchase": null,
            "purchase_log": null,
            "randomed": null,
            "repicked": null,
            "roshans_killed": null,
            "rune_pickups": null,
            "runes": null,
            "runes_log": null,
            "sen": null,
            "sen_left_log": null,
            "sen_log": null,
            "sen_placed": null,
            "stuns": null,
            "teamfight_participation": null,
            "times": null,
            "tower_damage": 2340,
            "towers_killed": null,
            "xp_per_min": 615,
            "xp_reasons": null,
            "xp_t": null,
            "personaname": "Paterx",
            "name": null,
            "last_login": "2018-11-25T04:57:04.440Z",
            "radiant_win": false,
            "start_time": 1617768733,
            "duration": 2329,
            "cluster": 122,
            "lobby_type": 0,
            "game_mode": 22,
            "is_contributor": false,
            "patch": 47,
            "region": 2,
            "isRadiant": true,
            "win": 0,
            "lose": 1,
            "total_gold": 19835,
            "total_xp": 23872,
            "kills_per_min": 0.12881064834693,
            "kda": 1,
            "abandons": 0,
            "rank_tier": 43,
            "cosmetics": [],
            "benchmarks": {
                "gold_per_min": {
                    "raw": 511,
                    "pct": 0.3890063424947146
                },
                "xp_per_min": {
                    "raw": 615,
                    "pct": 0.34460887949260044
                },
                "kills_per_min": {
                    "raw": 0.12881064834693,
                    "pct": 0.34143763213530653
                },
                "last_hits_per_min": {
                    "raw": 7.702876771146415,
                    "pct": 0.5465116279069767
                },
                "hero_damage_per_min": {
                    "raw": 236.18720480893086,
                    "pct": 0.1014799154334038
                },
                "hero_healing_per_min": {
                    "raw": 0,
                    "pct": 0.9725158562367865
                },
                "tower_damage": {
                    "raw": 2340,
                    "pct": 0.40169133192389006
                },
                "stuns_per_min": {
                    "raw": 0,
                    "pct": 0.6046511627906976
                },
                "lhten": {}
            }
        },
        {
            "match_id": 5931675605,
            "player_slot": 1,
            "ability_targets": null,
            "ability_upgrades_arr": [
                5423,
                5421,
                5423,
                5421,
                5423,
                5425,
                5423,
                5421,
                5421,
                5947,
                5422,
                5425,
                5422,
                5422,
                5918
            ],
            "ability_uses": null,
            "account_id": 116349078,
            "actions": null,
            "additional_units": null,
            "assists": 7,
            "backpack_0": 0,
            "backpack_1": 188,
            "backpack_2": 0,
            "backpack_3": null,
            "buyback_log": null,
            "camps_stacked": null,
            "connection_log": null,
            "creeps_stacked": null,
            "damage": null,
            "damage_inflictor": null,
            "damage_inflictor_received": null,
            "damage_taken": null,
            "damage_targets": null,
            "deaths": 6,
            "denies": 3,
            "dn_t": null,
            "firstblood_claimed": null,
            "gold": 714,
            "gold_per_min": 252,
            "gold_reasons": null,
            "gold_spent": 9800,
            "gold_t": null,
            "hero_damage": 20905,
            "hero_healing": 0,
            "hero_hits": null,
            "hero_id": 79,
            "item_0": 37,
            "item_1": 254,
            "item_2": 42,
            "item_3": 232,
            "item_4": 244,
            "item_5": 214,
            "item_neutral": 375,
            "item_uses": null,
            "kill_streaks": null,
            "killed": null,
            "killed_by": null,
            "kills": 9,
            "kills_log": null,
            "lane_pos": null,
            "last_hits": 48,
            "leaver_status": 0,
            "level": 15,
            "lh_t": null,
            "life_state": null,
            "max_hero_hit": null,
            "multi_kills": null,
            "net_worth": 7754,
            "obs": null,
            "obs_left_log": null,
            "obs_log": null,
            "obs_placed": null,
            "party_id": 0,
            "party_size": 5,
            "performance_others": null,
            "permanent_buffs": null,
            "pings": null,
            "pred_vict": null,
            "purchase": null,
            "purchase_log": null,
            "randomed": null,
            "repicked": null,
            "roshans_killed": null,
            "rune_pickups": null,
            "runes": null,
            "runes_log": null,
            "sen": null,
            "sen_left_log": null,
            "sen_log": null,
            "sen_placed": null,
            "stuns": null,
            "teamfight_participation": null,
            "times": null,
            "tower_damage": 0,
            "towers_killed": null,
            "xp_per_min": 307,
            "xp_reasons": null,
            "xp_t": null,
            "personaname": "HowL",
            "name": null,
            "last_login": "2018-01-02T07:08:58.414Z",
            "radiant_win": false,
            "start_time": 1617768733,
            "duration": 2329,
            "cluster": 122,
            "lobby_type": 0,
            "game_mode": 22,
            "is_contributor": false,
            "patch": 47,
            "region": 2,
            "isRadiant": true,
            "win": 0,
            "lose": 1,
            "total_gold": 9781,
            "total_xp": 11916,
            "kills_per_min": 0.231859167024474,
            "kda": 2,
            "abandons": 0,
            "rank_tier": 55,
            "cosmetics": [],
            "benchmarks": {
                "gold_per_min": {
                    "raw": 252,
                    "pct": 0.3024193548387097
                },
                "xp_per_min": {
                    "raw": 307,
                    "pct": 0.14919354838709678
                },
                "kills_per_min": {
                    "raw": 0.231859167024474,
                    "pct": 0.9395161290322581
                },
                "last_hits_per_min": {
                    "raw": 1.2365822241305282,
                    "pct": 0.43951612903225806
                },
                "hero_damage_per_min": {
                    "raw": 538.5573207385144,
                    "pct": 0.8709677419354839
                },
                "hero_healing_per_min": {
                    "raw": 0,
                    "pct": 0.5080645161290323
                },
                "tower_damage": {
                    "raw": 0,
                    "pct": 0.23387096774193547
                },
                "stuns_per_min": {
                    "raw": 0,
                    "pct": 0
                },
                "lhten": {}
            }
        },
        {
            "match_id": 5931675605,
            "player_slot": 2,
            "ability_targets": null,
            "ability_upgrades_arr": [
                5024,
                5025,
                5024,
                5023,
                5025,
                5026,
                5024,
                5025,
                5025,
                6094,
                5024,
                5026,
                5023,
                5023,
                5919,
                5023
            ],
            "ability_uses": null,
            "account_id": 81968524,
            "actions": null,
            "additional_units": null,
            "assists": 9,
            "backpack_0": 16,
            "backpack_1": 11,
            "backpack_2": 0,
            "backpack_3": null,
            "buyback_log": null,
            "camps_stacked": null,
            "connection_log": null,
            "creeps_stacked": null,
            "damage": null,
            "damage_inflictor": null,
            "damage_inflictor_received": null,
            "damage_taken": null,
            "damage_targets": null,
            "deaths": 5,
            "denies": 0,
            "dn_t": null,
            "firstblood_claimed": null,
            "gold": 439,
            "gold_per_min": 298,
            "gold_reasons": null,
            "gold_spent": 10790,
            "gold_t": null,
            "hero_damage": 17962,
            "hero_healing": 0,
            "hero_hits": null,
            "hero_id": 7,
            "item_0": 50,
            "item_1": 1,
            "item_2": 178,
            "item_3": 8,
            "item_4": 21,
            "item_5": 73,
            "item_neutral": 326,
            "item_uses": null,
            "kill_streaks": null,
            "killed": null,
            "killed_by": null,
            "kills": 3,
            "kills_log": null,
            "lane_pos": null,
            "last_hits": 134,
            "leaver_status": 0,
            "level": 17,
            "lh_t": null,
            "life_state": null,
            "max_hero_hit": null,
            "multi_kills": null,
            "net_worth": 9709,
            "obs": null,
            "obs_left_log": null,
            "obs_log": null,
            "obs_placed": null,
            "party_id": 0,
            "party_size": 5,
            "performance_others": null,
            "permanent_buffs": [
                {
                    "permanent_buff": 12,
                    "stack_count": 0
                }
            ],
            "pings": null,
            "pred_vict": null,
            "purchase": null,
            "purchase_log": null,
            "randomed": null,
            "repicked": null,
            "roshans_killed": null,
            "rune_pickups": null,
            "runes": null,
            "runes_log": null,
            "sen": null,
            "sen_left_log": null,
            "sen_log": null,
            "sen_placed": null,
            "stuns": null,
            "teamfight_participation": null,
            "times": null,
            "tower_damage": 888,
            "towers_killed": null,
            "xp_per_min": 372,
            "xp_reasons": null,
            "xp_t": null,
            "personaname": "breastplate stretcher",
            "name": null,
            "last_login": "2018-11-24T15:32:55.991Z",
            "radiant_win": false,
            "start_time": 1617768733,
            "duration": 2329,
            "cluster": 122,
            "lobby_type": 0,
            "game_mode": 22,
            "is_contributor": false,
            "patch": 47,
            "region": 2,
            "isRadiant": true,
            "win": 0,
            "lose": 1,
            "total_gold": 11567,
            "total_xp": 14439,
            "kills_per_min": 0.077286389008158,
            "kda": 2,
            "abandons": 0,
            "rank_tier": 35,
            "cosmetics": [],
            "benchmarks": {
                "gold_per_min": {
                    "raw": 298,
                    "pct": 0.3604060913705584
                },
                "xp_per_min": {
                    "raw": 372,
                    "pct": 0.21116751269035533
                },
                "kills_per_min": {
                    "raw": 0.07728638900815801,
                    "pct": 0.39593908629441626
                },
                "last_hits_per_min": {
                    "raw": 3.4521253756977246,
                    "pct": 0.8060913705583757
                },
                "hero_damage_per_min": {
                    "raw": 462.7393731215114,
                    "pct": 0.6456852791878173
                },
                "hero_healing_per_min": {
                    "raw": 0,
                    "pct": 0.7939086294416243
                },
                "tower_damage": {
                    "raw": 888,
                    "pct": 0.683248730964467
                },
                "stuns_per_min": {
                    "raw": 0,
                    "pct": 0.0010152284263959391
                },
                "lhten": {}
            }
        },
        {
            "match_id": 5931675605,
            "player_slot": 3,
            "ability_targets": null,
            "ability_upgrades_arr": [
                7322,
                5566,
                5565,
                7322,
                7322,
                5568,
                7322,
                5566,
                5566,
                414,
                5566,
                5568,
                5565,
                5565,
                6423,
                5565,
                5568
            ],
            "ability_uses": null,
            "account_id": 106034326,
            "actions": null,
            "additional_units": null,
            "assists": 17,
            "backpack_0": 181,
            "backpack_1": 0,
            "backpack_2": 0,
            "backpack_3": null,
            "buyback_log": null,
            "camps_stacked": null,
            "connection_log": null,
            "creeps_stacked": null,
            "damage": null,
            "damage_inflictor": null,
            "damage_inflictor_received": null,
            "damage_taken": null,
            "damage_targets": null,
            "deaths": 12,
            "denies": 0,
            "dn_t": null,
            "firstblood_claimed": null,
            "gold": 409,
            "gold_per_min": 205,
            "gold_reasons": null,
            "gold_spent": 6705,
            "gold_t": null,
            "hero_damage": 13179,
            "hero_healing": 0,
            "hero_hits": null,
            "hero_id": 100,
            "item_0": 214,
            "item_1": 1,
            "item_2": 188,
            "item_3": 36,
            "item_4": 40,
            "item_5": 218,
            "item_neutral": 676,
            "item_uses": null,
            "kill_streaks": null,
            "killed": null,
            "killed_by": null,
            "kills": 2,
            "kills_log": null,
            "lane_pos": null,
            "last_hits": 31,
            "leaver_status": 0,
            "level": 18,
            "lh_t": null,
            "life_state": null,
            "max_hero_hit": null,
            "multi_kills": null,
            "net_worth": 4604,
            "obs": null,
            "obs_left_log": null,
            "obs_log": null,
            "obs_placed": null,
            "party_id": 0,
            "party_size": 5,
            "performance_others": null,
            "permanent_buffs": [
                {
                    "permanent_buff": 6,
                    "stack_count": 3
                }
            ],
            "pings": null,
            "pred_vict": null,
            "purchase": null,
            "purchase_log": null,
            "randomed": null,
            "repicked": null,
            "roshans_killed": null,
            "rune_pickups": null,
            "runes": null,
            "runes_log": null,
            "sen": null,
            "sen_left_log": null,
            "sen_log": null,
            "sen_placed": null,
            "stuns": null,
            "teamfight_participation": null,
            "times": null,
            "tower_damage": 177,
            "towers_killed": null,
            "xp_per_min": 394,
            "xp_reasons": null,
            "xp_t": null,
            "personaname": "Ashlyn",
            "name": null,
            "last_login": "2019-03-25T22:34:38.885Z",
            "radiant_win": false,
            "start_time": 1617768733,
            "duration": 2329,
            "cluster": 122,
            "lobby_type": 0,
            "game_mode": 22,
            "is_contributor": false,
            "patch": 47,
            "region": 2,
            "isRadiant": true,
            "win": 0,
            "lose": 1,
            "total_gold": 7957,
            "total_xp": 15293,
            "kills_per_min": 0.051524259338772,
            "kda": 1,
            "abandons": 0,
            "rank_tier": 63,
            "cosmetics": [],
            "benchmarks": {
                "gold_per_min": {
                    "raw": 205,
                    "pct": 0.10867802108678021
                },
                "xp_per_min": {
                    "raw": 394,
                    "pct": 0.308191403081914
                },
                "kills_per_min": {
                    "raw": 0.051524259338772006,
                    "pct": 0.17680454176804541
                },
                "last_hits_per_min": {
                    "raw": 0.798626019750966,
                    "pct": 0.2587185725871857
                },
                "hero_damage_per_min": {
                    "raw": 339.51910691283814,
                    "pct": 0.46147607461476076
                },
                "hero_healing_per_min": {
                    "raw": 0,
                    "pct": 0.6342254663422546
                },
                "tower_damage": {
                    "raw": 177,
                    "pct": 0.40875912408759124
                },
                "stuns_per_min": {
                    "raw": 0,
                    "pct": 0.0008110300081103001
                },
                "lhten": {}
            }
        },
        {
            "match_id": 5931675605,
            "player_slot": 4,
            "ability_targets": null,
            "ability_upgrades_arr": [
                5186,
                5187,
                5186,
                5187,
                5186,
                5189,
                5186,
                5187,
                5187,
                5188,
                6034,
                5189,
                5188,
                5188,
                6859,
                5188,
                5189
            ],
            "ability_uses": null,
            "account_id": 95999142,
            "actions": null,
            "additional_units": null,
            "assists": 7,
            "backpack_0": 0,
            "backpack_1": 0,
            "backpack_2": 0,
            "backpack_3": null,
            "buyback_log": null,
            "camps_stacked": null,
            "connection_log": null,
            "creeps_stacked": null,
            "damage": null,
            "damage_inflictor": null,
            "damage_inflictor_received": null,
            "damage_taken": null,
            "damage_targets": null,
            "deaths": 10,
            "denies": 1,
            "dn_t": null,
            "firstblood_claimed": null,
            "gold": 1024,
            "gold_per_min": 295,
            "gold_reasons": null,
            "gold_spent": 10665,
            "gold_t": null,
            "hero_damage": 25202,
            "hero_healing": 133,
            "hero_hits": null,
            "hero_id": 45,
            "item_0": 232,
            "item_1": 1,
            "item_2": 60,
            "item_3": 214,
            "item_4": 77,
            "item_5": 77,
            "item_neutral": 589,
            "item_uses": null,
            "kill_streaks": null,
            "killed": null,
            "killed_by": null,
            "kills": 3,
            "kills_log": null,
            "lane_pos": null,
            "last_hits": 113,
            "leaver_status": 0,
            "level": 18,
            "lh_t": null,
            "life_state": null,
            "max_hero_hit": null,
            "multi_kills": null,
            "net_worth": 10184,
            "obs": null,
            "obs_left_log": null,
            "obs_log": null,
            "obs_placed": null,
            "party_id": 0,
            "party_size": 5,
            "performance_others": null,
            "permanent_buffs": [
                {
                    "permanent_buff": 12,
                    "stack_count": 0
                }
            ],
            "pings": null,
            "pred_vict": null,
            "purchase": null,
            "purchase_log": null,
            "randomed": null,
            "repicked": null,
            "roshans_killed": null,
            "rune_pickups": null,
            "runes": null,
            "runes_log": null,
            "sen": null,
            "sen_left_log": null,
            "sen_log": null,
            "sen_placed": null,
            "stuns": null,
            "teamfight_participation": null,
            "times": null,
            "tower_damage": 3677,
            "towers_killed": null,
            "xp_per_min": 411,
            "xp_reasons": null,
            "xp_t": null,
            "personaname": "Punished Lightskin",
            "name": null,
            "last_login": null,
            "radiant_win": false,
            "start_time": 1617768733,
            "duration": 2329,
            "cluster": 122,
            "lobby_type": 0,
            "game_mode": 22,
            "is_contributor": false,
            "patch": 47,
            "region": 2,
            "isRadiant": true,
            "win": 0,
            "lose": 1,
            "total_gold": 11450,
            "total_xp": 15953,
            "kills_per_min": 0.077286389008158,
            "kda": 0,
            "abandons": 0,
            "rank_tier": 22,
            "cosmetics": [],
            "benchmarks": {
                "gold_per_min": {
                    "raw": 295,
                    "pct": 0.14102564102564102
                },
                "xp_per_min": {
                    "raw": 411,
                    "pct": 0.1752136752136752
                },
                "kills_per_min": {
                    "raw": 0.07728638900815801,
                    "pct": 0.1858974358974359
                },
                "last_hits_per_min": {
                    "raw": 2.9111206526406184,
                    "pct": 0.3547008547008547
                },
                "hero_damage_per_min": {
                    "raw": 649.257191927866,
                    "pct": 0.4658119658119658
                },
                "hero_healing_per_min": {
                    "raw": 3.4263632460283384,
                    "pct": 0.16880341880341881
                },
                "tower_damage": {
                    "raw": 3677,
                    "pct": 0.5876068376068376
                },
                "stuns_per_min": {
                    "raw": 0,
                    "pct": 0.7777777777777778
                },
                "lhten": {}
            }
        },
        {
            "match_id": 5931675605,
            "player_slot": 128,
            "ability_targets": null,
            "ability_upgrades_arr": [
                5359,
                5358,
                5359,
                5357,
                5359,
                5360,
                5359,
                5358,
                5358,
                5358,
                5357,
                5360,
                5357,
                5357,
                6195,
                6975,
                5360,
                6132,
                424
            ],
            "ability_uses": null,
            "account_id": null,
            "actions": null,
            "additional_units": null,
            "assists": 8,
            "backpack_0": 0,
            "backpack_1": 0,
            "backpack_2": 0,
            "backpack_3": null,
            "buyback_log": null,
            "camps_stacked": null,
            "connection_log": null,
            "creeps_stacked": null,
            "damage": null,
            "damage_inflictor": null,
            "damage_inflictor_received": null,
            "damage_taken": null,
            "damage_targets": null,
            "deaths": 2,
            "denies": 12,
            "dn_t": null,
            "firstblood_claimed": null,
            "gold": 2481,
            "gold_per_min": 630,
            "gold_reasons": null,
            "gold_spent": 23000,
            "gold_t": null,
            "hero_damage": 25295,
            "hero_healing": 0,
            "hero_hits": null,
            "hero_id": 70,
            "item_0": 50,
            "item_1": 116,
            "item_2": 208,
            "item_3": 225,
            "item_4": 145,
            "item_5": 117,
            "item_neutral": 378,
            "item_uses": null,
            "kill_streaks": null,
            "killed": null,
            "killed_by": null,
            "kills": 16,
            "kills_log": null,
            "lane_pos": null,
            "last_hits": 229,
            "leaver_status": 0,
            "level": 26,
            "lh_t": null,
            "life_state": null,
            "max_hero_hit": null,
            "multi_kills": null,
            "net_worth": 23601,
            "obs": null,
            "obs_left_log": null,
            "obs_log": null,
            "obs_placed": null,
            "party_id": 1,
            "party_size": 5,
            "performance_others": null,
            "permanent_buffs": [
                {
                    "permanent_buff": 6,
                    "stack_count": 3
                }
            ],
            "pings": null,
            "pred_vict": null,
            "purchase": null,
            "purchase_log": null,
            "randomed": null,
            "repicked": null,
            "roshans_killed": null,
            "rune_pickups": null,
            "runes": null,
            "runes_log": null,
            "sen": null,
            "sen_left_log": null,
            "sen_log": null,
            "sen_placed": null,
            "stuns": null,
            "teamfight_participation": null,
            "times": null,
            "tower_damage": 4499,
            "towers_killed": null,
            "xp_per_min": 755,
            "xp_reasons": null,
            "xp_t": null,
            "radiant_win": false,
            "start_time": 1617768733,
            "duration": 2329,
            "cluster": 122,
            "lobby_type": 0,
            "game_mode": 22,
            "is_contributor": false,
            "patch": 47,
            "region": 2,
            "isRadiant": false,
            "win": 1,
            "lose": 0,
            "total_gold": 24454,
            "total_xp": 29306,
            "kills_per_min": 0.412194074710176,
            "kda": 8,
            "abandons": 0,
            "rank_tier": null,
            "cosmetics": [],
            "benchmarks": {
                "gold_per_min": {
                    "raw": 630,
                    "pct": 0.5975327679259831
                },
                "xp_per_min": {
                    "raw": 755,
                    "pct": 0.6083269082498073
                },
                "kills_per_min": {
                    "raw": 0.41219407471017605,
                    "pct": 0.7956823438704703
                },
                "last_hits_per_min": {
                    "raw": 5.899527694289395,
                    "pct": 0.2636854279105628
                },
                "hero_damage_per_min": {
                    "raw": 651.6530699871189,
                    "pct": 0.4772552043176561
                },
                "hero_healing_per_min": {
                    "raw": 0,
                    "pct": 0.9583654587509638
                },
                "tower_damage": {
                    "raw": 4499,
                    "pct": 0.5505011565150347
                },
                "stuns_per_min": {
                    "raw": 0,
                    "pct": 0.2174248265227448
                },
                "lhten": {}
            }
        },
        {
            "match_id": 5931675605,
            "player_slot": 129,
            "ability_targets": null,
            "ability_upgrades_arr": [
                5041,
                5040,
                5042,
                5040,
                5040,
                5043,
                5040,
                5042,
                5042,
                5947,
                5042,
                5043,
                5041,
                5041,
                6388,
                5041,
                5043,
                444
            ],
            "ability_uses": null,
            "account_id": null,
            "actions": null,
            "additional_units": null,
            "assists": 16,
            "backpack_0": 0,
            "backpack_1": 676,
            "backpack_2": 41,
            "backpack_3": null,
            "buyback_log": null,
            "camps_stacked": null,
            "connection_log": null,
            "creeps_stacked": null,
            "damage": null,
            "damage_inflictor": null,
            "damage_inflictor_received": null,
            "damage_taken": null,
            "damage_targets": null,
            "deaths": 10,
            "denies": 1,
            "dn_t": null,
            "firstblood_claimed": null,
            "gold": 5000,
            "gold_per_min": 499,
            "gold_reasons": null,
            "gold_spent": 14345,
            "gold_t": null,
            "hero_damage": 17890,
            "hero_healing": 632,
            "hero_hits": null,
            "hero_id": 25,
            "item_0": 232,
            "item_1": 0,
            "item_2": 36,
            "item_3": 259,
            "item_4": 48,
            "item_5": 108,
            "item_neutral": 356,
            "item_uses": null,
            "kill_streaks": null,
            "killed": null,
            "killed_by": null,
            "kills": 4,
            "kills_log": null,
            "lane_pos": null,
            "last_hits": 212,
            "leaver_status": 0,
            "level": 22,
            "lh_t": null,
            "life_state": null,
            "max_hero_hit": null,
            "multi_kills": null,
            "net_worth": 17190,
            "obs": null,
            "obs_left_log": null,
            "obs_log": null,
            "obs_placed": null,
            "party_id": 1,
            "party_size": 5,
            "performance_others": null,
            "permanent_buffs": null,
            "pings": null,
            "pred_vict": null,
            "purchase": null,
            "purchase_log": null,
            "randomed": null,
            "repicked": null,
            "roshans_killed": null,
            "rune_pickups": null,
            "runes": null,
            "runes_log": null,
            "sen": null,
            "sen_left_log": null,
            "sen_log": null,
            "sen_placed": null,
            "stuns": null,
            "teamfight_participation": null,
            "times": null,
            "tower_damage": 3931,
            "towers_killed": null,
            "xp_per_min": 568,
            "xp_reasons": null,
            "xp_t": null,
            "radiant_win": false,
            "start_time": 1617768733,
            "duration": 2329,
            "cluster": 122,
            "lobby_type": 0,
            "game_mode": 22,
            "is_contributor": false,
            "patch": 47,
            "region": 2,
            "isRadiant": false,
            "win": 1,
            "lose": 0,
            "total_gold": 19369,
            "total_xp": 22047,
            "kills_per_min": 0.103048518677544,
            "kda": 1,
            "abandons": 0,
            "rank_tier": null,
            "cosmetics": [],
            "benchmarks": {
                "gold_per_min": {
                    "raw": 499,
                    "pct": 0.788546255506608
                },
                "xp_per_min": {
                    "raw": 568,
                    "pct": 0.5682819383259912
                },
                "kills_per_min": {
                    "raw": 0.10304851867754401,
                    "pct": 0.28854625550660795
                },
                "last_hits_per_min": {
                    "raw": 5.461571489909833,
                    "pct": 0.7599118942731278
                },
                "hero_damage_per_min": {
                    "raw": 460.8844997853156,
                    "pct": 0.5429515418502202
                },
                "hero_healing_per_min": {
                    "raw": 16.281665951051952,
                    "pct": 0.9449339207048458
                },
                "tower_damage": {
                    "raw": 3931,
                    "pct": 0.7819383259911894
                },
                "stuns_per_min": {
                    "raw": 0,
                    "pct": 0.003303964757709251
                },
                "lhten": {}
            }
        },
        {
            "match_id": 5931675605,
            "player_slot": 130,
            "ability_targets": null,
            "ability_upgrades_arr": [
                5591,
                5593,
                5591,
                5589,
                5589,
                5589,
                5594,
                5593,
                5589,
                5917,
                5591,
                5593,
                5594,
                5593,
                6138,
                5591,
                5594,
                6827
            ],
            "ability_uses": null,
            "account_id": 154100896,
            "actions": null,
            "additional_units": null,
            "assists": 24,
            "backpack_0": 43,
            "backpack_1": 188,
            "backpack_2": 38,
            "backpack_3": null,
            "buyback_log": null,
            "camps_stacked": null,
            "connection_log": null,
            "creeps_stacked": null,
            "damage": null,
            "damage_inflictor": null,
            "damage_inflictor_received": null,
            "damage_taken": null,
            "damage_targets": null,
            "deaths": 1,
            "denies": 12,
            "dn_t": null,
            "firstblood_claimed": null,
            "gold": 2059,
            "gold_per_min": 386,
            "gold_reasons": null,
            "gold_spent": 13600,
            "gold_t": null,
            "hero_damage": 16972,
            "hero_healing": 4418,
            "hero_hits": null,
            "hero_id": 103,
            "item_0": 92,
            "item_1": 36,
            "item_2": 81,
            "item_3": 187,
            "item_4": 90,
            "item_5": 214,
            "item_neutral": 357,
            "item_uses": null,
            "kill_streaks": null,
            "killed": null,
            "killed_by": null,
            "kills": 5,
            "kills_log": null,
            "lane_pos": null,
            "last_hits": 97,
            "leaver_status": 0,
            "level": 22,
            "lh_t": null,
            "life_state": null,
            "max_hero_hit": null,
            "multi_kills": null,
            "net_worth": 13239,
            "obs": null,
            "obs_left_log": null,
            "obs_log": null,
            "obs_placed": null,
            "party_id": 1,
            "party_size": 5,
            "performance_others": null,
            "permanent_buffs": null,
            "pings": null,
            "pred_vict": null,
            "purchase": null,
            "purchase_log": null,
            "randomed": null,
            "repicked": null,
            "roshans_killed": null,
            "rune_pickups": null,
            "runes": null,
            "runes_log": null,
            "sen": null,
            "sen_left_log": null,
            "sen_log": null,
            "sen_placed": null,
            "stuns": null,
            "teamfight_participation": null,
            "times": null,
            "tower_damage": 374,
            "towers_killed": null,
            "xp_per_min": 555,
            "xp_reasons": null,
            "xp_t": null,
            "personaname": "KnucKleball",
            "name": null,
            "last_login": null,
            "radiant_win": false,
            "start_time": 1617768733,
            "duration": 2329,
            "cluster": 122,
            "lobby_type": 0,
            "game_mode": 22,
            "is_contributor": false,
            "patch": 47,
            "region": 2,
            "isRadiant": false,
            "win": 1,
            "lose": 0,
            "total_gold": 14983,
            "total_xp": 21543,
            "kills_per_min": 0.12881064834693,
            "kda": 14,
            "abandons": 0,
            "rank_tier": 54,
            "cosmetics": [],
            "benchmarks": {
                "gold_per_min": {
                    "raw": 386,
                    "pct": 0.7326732673267327
                },
                "xp_per_min": {
                    "raw": 555,
                    "pct": 0.6287128712871287
                },
                "kills_per_min": {
                    "raw": 0.12881064834693,
                    "pct": 0.6386138613861386
                },
                "last_hits_per_min": {
                    "raw": 2.4989265779304426,
                    "pct": 0.599009900990099
                },
                "hero_damage_per_min": {
                    "raw": 437.23486474881923,
                    "pct": 0.6089108910891089
                },
                "hero_healing_per_min": {
                    "raw": 113.81708887934735,
                    "pct": 0.995049504950495
                },
                "tower_damage": {
                    "raw": 374,
                    "pct": 0.40594059405940597
                },
                "stuns_per_min": {
                    "raw": 0,
                    "pct": 0.0049504950495049506
                },
                "lhten": {}
            }
        },
        {
            "match_id": 5931675605,
            "player_slot": 131,
            "ability_targets": null,
            "ability_upgrades_arr": [
                5094,
                5096,
                5095,
                5095,
                5095,
                5097,
                5095,
                5096,
                5096,
                5096,
                6115,
                5097,
                5094,
                5094,
                673,
                5094,
                5097,
                6045,
                6910
            ],
            "ability_uses": null,
            "account_id": null,
            "actions": null,
            "additional_units": null,
            "assists": 14,
            "backpack_0": 65,
            "backpack_1": 33,
            "backpack_2": 377,
            "backpack_3": null,
            "buyback_log": null,
            "camps_stacked": null,
            "connection_log": null,
            "creeps_stacked": null,
            "damage": null,
            "damage_inflictor": null,
            "damage_inflictor_received": null,
            "damage_taken": null,
            "damage_targets": null,
            "deaths": 3,
            "denies": 6,
            "dn_t": null,
            "firstblood_claimed": null,
            "gold": 3784,
            "gold_per_min": 703,
            "gold_reasons": null,
            "gold_spent": 24485,
            "gold_t": null,
            "hero_damage": 30019,
            "hero_healing": 0,
            "hero_hits": null,
            "hero_id": 18,
            "item_0": 63,
            "item_1": 116,
            "item_2": 141,
            "item_3": 112,
            "item_4": 252,
            "item_5": 1,
            "item_neutral": 326,
            "item_uses": null,
            "kill_streaks": null,
            "killed": null,
            "killed_by": null,
            "kills": 13,
            "kills_log": null,
            "lane_pos": null,
            "last_hits": 337,
            "leaver_status": 0,
            "level": 26,
            "lh_t": null,
            "life_state": null,
            "max_hero_hit": null,
            "multi_kills": null,
            "net_worth": 27499,
            "obs": null,
            "obs_left_log": null,
            "obs_log": null,
            "obs_placed": null,
            "party_id": 1,
            "party_size": 5,
            "performance_others": null,
            "permanent_buffs": null,
            "pings": null,
            "pred_vict": null,
            "purchase": null,
            "purchase_log": null,
            "randomed": null,
            "repicked": null,
            "roshans_killed": null,
            "rune_pickups": null,
            "runes": null,
            "runes_log": null,
            "sen": null,
            "sen_left_log": null,
            "sen_log": null,
            "sen_placed": null,
            "stuns": null,
            "teamfight_participation": null,
            "times": null,
            "tower_damage": 7084,
            "towers_killed": null,
            "xp_per_min": 805,
            "xp_reasons": null,
            "xp_t": null,
            "radiant_win": false,
            "start_time": 1617768733,
            "duration": 2329,
            "cluster": 122,
            "lobby_type": 0,
            "game_mode": 22,
            "is_contributor": false,
            "patch": 47,
            "region": 2,
            "isRadiant": false,
            "win": 1,
            "lose": 0,
            "total_gold": 27288,
            "total_xp": 31247,
            "kills_per_min": 0.334907685702018,
            "kda": 6,
            "abandons": 0,
            "rank_tier": null,
            "cosmetics": [],
            "benchmarks": {
                "gold_per_min": {
                    "raw": 703,
                    "pct": 0.8604651162790697
                },
                "xp_per_min": {
                    "raw": 805,
                    "pct": 0.840531561461794
                },
                "kills_per_min": {
                    "raw": 0.334907685702018,
                    "pct": 0.8438538205980066
                },
                "last_hits_per_min": {
                    "raw": 8.681837698583085,
                    "pct": 0.760797342192691
                },
                "hero_damage_per_min": {
                    "raw": 773.3533705452984,
                    "pct": 0.8073089700996677
                },
                "hero_healing_per_min": {
                    "raw": 0,
                    "pct": 0.9501661129568106
                },
                "tower_damage": {
                    "raw": 7084,
                    "pct": 0.6843853820598007
                },
                "stuns_per_min": {
                    "raw": 0,
                    "pct": 0
                },
                "lhten": {}
            }
        },
        {
            "match_id": 5931675605,
            "player_slot": 132,
            "ability_targets": null,
            "ability_upgrades_arr": [
                5115,
                5116,
                5114,
                5116,
                5116,
                5117,
                5116,
                5114,
                5114,
                5114,
                5960,
                5117,
                5115,
                5115,
                6311,
                5115,
                5117,
                504
            ],
            "ability_uses": null,
            "account_id": 108739309,
            "actions": null,
            "additional_units": null,
            "assists": 18,
            "backpack_0": 0,
            "backpack_1": 0,
            "backpack_2": 0,
            "backpack_3": null,
            "buyback_log": null,
            "camps_stacked": null,
            "connection_log": null,
            "creeps_stacked": null,
            "damage": null,
            "damage_inflictor": null,
            "damage_inflictor_received": null,
            "damage_taken": null,
            "damage_targets": null,
            "deaths": 7,
            "denies": 15,
            "dn_t": null,
            "firstblood_claimed": null,
            "gold": 592,
            "gold_per_min": 363,
            "gold_reasons": null,
            "gold_spent": 13345,
            "gold_t": null,
            "hero_damage": 12918,
            "hero_healing": 0,
            "hero_hits": null,
            "hero_id": 28,
            "item_0": 73,
            "item_1": 108,
            "item_2": 63,
            "item_3": 36,
            "item_4": 11,
            "item_5": 1,
            "item_neutral": 381,
            "item_uses": null,
            "kill_streaks": null,
            "killed": null,
            "killed_by": null,
            "kills": 0,
            "kills_log": null,
            "lane_pos": null,
            "last_hits": 120,
            "leaver_status": 0,
            "level": 22,
            "lh_t": null,
            "life_state": null,
            "max_hero_hit": null,
            "multi_kills": null,
            "net_worth": 12672,
            "obs": null,
            "obs_left_log": null,
            "obs_log": null,
            "obs_placed": null,
            "party_id": 1,
            "party_size": 5,
            "performance_others": null,
            "permanent_buffs": [
                {
                    "permanent_buff": 12,
                    "stack_count": 0
                }
            ],
            "pings": null,
            "pred_vict": null,
            "purchase": null,
            "purchase_log": null,
            "randomed": null,
            "repicked": null,
            "roshans_killed": null,
            "rune_pickups": null,
            "runes": null,
            "runes_log": null,
            "sen": null,
            "sen_left_log": null,
            "sen_log": null,
            "sen_placed": null,
            "stuns": null,
            "teamfight_participation": null,
            "times": null,
            "tower_damage": 4608,
            "towers_killed": null,
            "xp_per_min": 577,
            "xp_reasons": null,
            "xp_t": null,
            "personaname": "Chippy",
            "name": null,
            "last_login": "2020-02-04T23:45:55.375Z",
            "radiant_win": false,
            "start_time": 1617768733,
            "duration": 2329,
            "cluster": 122,
            "lobby_type": 0,
            "game_mode": 22,
            "is_contributor": false,
            "patch": 47,
            "region": 2,
            "isRadiant": false,
            "win": 1,
            "lose": 0,
            "total_gold": 14090,
            "total_xp": 22397,
            "kda": 2,
            "abandons": 0,
            "rank_tier": 52,
            "cosmetics": [],
            "benchmarks": {
                "gold_per_min": {
                    "raw": 363,
                    "pct": 0.39037433155080214
                },
                "xp_per_min": {
                    "raw": 577,
                    "pct": 0.5668449197860963
                },
                "kills_per_min": {
                    "raw": 0,
                    "pct": 0.0427807486631016
                },
                "last_hits_per_min": {
                    "raw": 3.0914555603263203,
                    "pct": 0.3226381461675579
                },
                "hero_damage_per_min": {
                    "raw": 332.79519106912835,
                    "pct": 0.46345811051693403
                },
                "hero_healing_per_min": {
                    "raw": 0,
                    "pct": 0.9019607843137255
                },
                "tower_damage": {
                    "raw": 4608,
                    "pct": 0.8841354723707665
                },
                "stuns_per_min": {
                    "raw": 0,
                    "pct": 0
                },
                "lhten": {}
            }
        }
    ],
    "patch": 47,
    "region": 2,
    "replay_url": "http://replay122.valve.net/570/5931675605_1649886988.dem.bz2"
}